<?xml version="1.0" encoding="UTF-8" standalone="no"?>
<svg
   xmlns:dc="http://purl.org/dc/elements/1.1/"
   xmlns:cc="http://creativecommons.org/ns#"
   xmlns:rdf="http://www.w3.org/1999/02/22-rdf-syntax-ns#"
   xmlns:svg="http://www.w3.org/2000/svg"
   xmlns="http://www.w3.org/2000/svg"
   xmlns:sodipodi="http://sodipodi.sourceforge.net/DTD/sodipodi-0.dtd"
   xmlns:inkscape="http://www.inkscape.org/namespaces/inkscape"
   width="24"
   height="24"
   version="1.1"
   viewBox="0 0 24 24"
   id="svg4"
   sodipodi:docname="gwenview.svg"
   inkscape:version="0.92.2 2405546, 2018-03-11">
  <metadata
     id="metadata10">
    <rdf:RDF>
      <cc:Work
         rdf:about="">
        <dc:format>image/svg+xml</dc:format>
        <dc:type
           rdf:resource="http://purl.org/dc/dcmitype/StillImage" />
      </cc:Work>
    </rdf:RDF>
  </metadata>
  <defs
     id="defs8" />
  <sodipodi:namedview
     pagecolor="#ffffff"
     bordercolor="#666666"
     borderopacity="1"
     objecttolerance="10"
     gridtolerance="10"
     guidetolerance="10"
     inkscape:pageopacity="0"
     inkscape:pageshadow="2"
     inkscape:window-width="735"
     inkscape:window-height="909"
     id="namedview6"
     showgrid="false"
     inkscape:zoom="9.8333333"
     inkscape:cx="12"
     inkscape:cy="12"
     inkscape:window-x="531"
     inkscape:window-y="74"
     inkscape:window-maximized="0"
     inkscape:current-layer="svg4" />
  <path
     d="m9.4223 18.339c-2.5328-0.68111-5.041-2.5299-6.6999-4.9386-0.64308-0.93373-0.80827-1.3556-0.68406-1.747 0.09007-0.28378 1.0435-1.401 2.1188-2.4827 4.0029-4.0269 8.0393-4.8847 12.381-2.6311 1.4125 0.7332 4.7184 3.8191 5.2999 4.9472 0.29696 0.57604 0.25778 0.68693-0.7337 2.0764-2.9361 4.1145-7.3819 5.9321-11.682 4.7757zm5.0526-2.3701c1.3555-0.91746 2.0318-2.0927 2.1281-3.698 0.16178-2.6969-1.6155-4.6891-4.3381-4.8625-3.0014-0.19111-5.0543 1.8607-4.8633 4.8606 0.11254 1.7674 0.93494 3.0694 2.4502 3.8791 1.3623 0.728 3.3993 0.64901 4.6231-0.17927zm-3.8401-2.5871c-1.2222-1.2222-0.36006-3.2967 1.3702-3.2967 1.1053 0 1.9265 0.82124 1.9265 1.9265 0 1.1053-0.82124 1.9265-1.9265 1.9265-0.56191 0-0.98609-0.17222-1.3702-0.55632z"
     stroke-width=".22665"
     id="path2"
     style="fill:#520a0a;fill-opacity:1" />
</svg>
