<?xml version="1.0" encoding="UTF-8" standalone="no"?>
<svg
   xmlns:dc="http://purl.org/dc/elements/1.1/"
   xmlns:cc="http://creativecommons.org/ns#"
   xmlns:rdf="http://www.w3.org/1999/02/22-rdf-syntax-ns#"
   xmlns:svg="http://www.w3.org/2000/svg"
   xmlns="http://www.w3.org/2000/svg"
   xmlns:sodipodi="http://sodipodi.sourceforge.net/DTD/sodipodi-0.dtd"
   xmlns:inkscape="http://www.inkscape.org/namespaces/inkscape"
   width="24"
   height="24"
   version="1.1"
   viewBox="0 0 24 24"
   id="svg4"
   sodipodi:docname="cool-retro-term.svg"
   inkscape:version="0.92.2 2405546, 2018-03-11">
  <metadata
     id="metadata10">
    <rdf:RDF>
      <cc:Work
         rdf:about="">
        <dc:format>image/svg+xml</dc:format>
        <dc:type
           rdf:resource="http://purl.org/dc/dcmitype/StillImage" />
      </cc:Work>
    </rdf:RDF>
  </metadata>
  <defs
     id="defs8" />
  <sodipodi:namedview
     pagecolor="#ffffff"
     bordercolor="#666666"
     borderopacity="1"
     objecttolerance="10"
     gridtolerance="10"
     guidetolerance="10"
     inkscape:pageopacity="0"
     inkscape:pageshadow="2"
     inkscape:window-width="1359"
     inkscape:window-height="743"
     id="namedview6"
     showgrid="false"
     inkscape:zoom="9.8333333"
     inkscape:cx="12"
     inkscape:cy="12"
     inkscape:window-x="0"
     inkscape:window-y="0"
     inkscape:window-maximized="0"
     inkscape:current-layer="svg4" />
  <path
     d="m3.5051 20.925c-0.71262-0.19829-1.2388-0.73231-1.4312-1.4526-0.098594-0.3691-0.098594-14.572 0-14.941 0.19558-0.73215 0.724-1.2606 1.4562-1.4562 0.36959-0.09873 16.57-0.09873 16.94 0 0.73215 0.19558 1.2606 0.724 1.4562 1.4562 0.09859 0.3691 0.09859 14.572 0 14.941-0.19558 0.73215-0.724 1.2606-1.4562 1.4562-0.35555 0.095-16.623 0.0915-16.965-4e-3zm16.49-7.9237v-5.9964h-15.99v11.993h15.99zm-11.99 2.9437c-0.93147-0.18265-1.772-1.0394-1.9509-1.9886-0.06584-0.34934-0.06584-2.5603 0-2.9096 0.14096-0.7479 0.68014-1.447 1.3679-1.7736 0.72673-0.34512 1.4331-0.34512 2.1598 0 0.89188 0.42355 1.4186 1.3094 1.4186 2.3858v0.34297h-1.9988v-0.29747c0-0.35739-0.0725-0.53527-0.2571-0.63072-0.25869-0.13377-0.57177-0.04102-0.6826 0.20223-0.04048 0.08884-0.0597 0.48341-0.0597 1.2257 0 1.1846 0.02191 1.3063 0.2571 1.4279 0.25869 0.13377 0.57177 0.041 0.6826-0.20223 0.03284-0.0721 0.0597-0.26489 0.0597-0.42849v-0.29747h1.9988v0.34297c0 0.48475-0.07507 0.82559-0.27452 1.2465-0.47388 1-1.6195 1.5702-2.7209 1.3542zm3.9948-0.94491v-0.99939h1.9988v1.9988h-1.9988zm4.9018 0.6621c-0.05467-0.18551-0.49715-1.7314-0.98329-3.4354-0.48614-1.704-0.8945-3.1262-0.90746-3.1606-0.01837-0.04868 0.1977-0.06246 0.97906-0.06246h1.0026l0.09939 0.3373c0.05467 0.18551 0.49715 1.7315 0.98329 3.4354 0.48614 1.704 0.8945 3.1262 0.90746 3.1606 0.01837 0.0487-0.1977 0.0625-0.97906 0.0625h-1.0026zm-4.9018-4.6597v-0.9994h1.9988v1.9988h-1.9988z"
     stroke-width=".04997"
     id="path2"
     style="fill:#a87f19;fill-opacity:1" />
</svg>
